%YAML 1.1
%TAG !u! tag:unity3d.com,2011:
--- !u!114 &11400000
MonoBehaviour:
  m_ObjectHideFlags: 0
  m_CorrespondingSourceObject: {fileID: 0}
  m_PrefabInstance: {fileID: 0}
  m_PrefabAsset: {fileID: 0}
  m_GameObject: {fileID: 0}
  m_Enabled: 1
  m_EditorHideFlags: 0
  m_Script: {fileID: 11500000, guid: abde3f1d8fc635d4cbd843c2a4f094a4, type: 3}
  m_Name: DefaultHeightMap
  m_EditorClassIdentifier: 
  autoUpdate: 1
  noiseSettings:
    seed: 0
    scale: 50
    octaves: 6
    lacunarity: 2
    persistance: 0.509
    startingOffset: {x: 0, y: 0}
    normalizeFactor: 2.1
    normalizeMode: 1
  applyFalloffMask: 0
  paddingFalloffMaskFactorA: 3
  paddingFalloffMaskFactorB: 2.2
  heightMultiplier: 50
  heightCurve:
    serializedVersion: 2
    m_Curve:
    - serializedVersion: 3
      time: 0
      value: 0
      inSlope: 0
      outSlope: 0
      tangentMode: 0
      weightedMode: 0
      inWeight: 0
      outWeight: 0
    - serializedVersion: 3
      time: 0.10183583
      value: 0.10400952
      inSlope: 0.005784114
      outSlope: 0.005784114
      tangentMode: 0
      weightedMode: 0
      inWeight: 0.40053996
      outWeight: 0.33333334
    - serializedVersion: 3
      time: 0.23226462
      value: 0.10671172
      inSlope: 0.07638235
      outSlope: 0.07638235
      tangentMode: 0
      weightedMode: 0
      inWeight: 0.29274622
      outWeight: 0.33333334
    - serializedVersion: 3
      time: 0.39848104
      value: 0.19828564
      inSlope: 0.005050862
      outSlope: 0.005050862
      tangentMode: 0
      weightedMode: 0
      inWeight: 0.089825414
      outWeight: 0.33333334
    - serializedVersion: 3
      time: 0.540877
      value: 0.38029733
      inSlope: 0.5397499
      outSlope: 0.5397499
      tangentMode: 0
      weightedMode: 0
      inWeight: 0.22407025
      outWeight: 0.33333334
    - serializedVersion: 3
      time: 1
      value: 1
      inSlope: 2
      outSlope: 2
      tangentMode: 0
      weightedMode: 0
      inWeight: 0
      outWeight: 0
    m_PreInfinity: 2
    m_PostInfinity: 2
    m_RotationOrder: 4
